{
    "fluentMethods": true,
    "relationships": [
        {
            "relationshipType": "one-to-many",
            "relationshipName": "children",
            "otherEntityName": "cashbookCategory",
            "otherEntityRelationshipName": "parent"
        },
        {
            "relationshipType": "one-to-many",
            "relationshipName": "cashbookEntries",
            "otherEntityName": "cashbookEntry",
            "otherEntityRelationshipName": "cashbookCategory"
        },
        {
            "relationshipType": "many-to-one",
            "relationshipName": "parent",
            "otherEntityName": "cashbookCategory",
            "otherEntityField": "id"
        }
    ],
    "fields": [
        {
            "fieldName": "name",
            "fieldType": "String",
            "fieldValidateRules": [
                "required"
            ]
        },
        {
            "fieldName": "description",
            "fieldType": "String"
        },
        {
            "fieldName": "color",
            "fieldType": "String",
            "fieldValidateRules": [
                "required",
                "pattern"
            ],
            "fieldValidateRulesPattern": "^#[A-Fa-f0-9]{6}$"
        }
    ],
    "changelogDate": "20161102104938",
    "entityTableName": "cashbook_category",
    "dto": "mapstruct",
    "pagination": "pager",
    "service": "serviceClass"
}