{
    "fluentMethods": true,
    "relationships": [
        {
            "relationshipName": "compositions",
            "otherEntityName": "composition",
            "relationshipType": "one-to-many",
            "otherEntityRelationshipName": "colorCode"
        }
    ],
    "fields": [
        {
            "fieldName": "name",
            "fieldType": "String",
            "fieldValidateRules": [
                "required"
            ]
        }
    ],
    "changelogDate": "20161102104944",
    "dto": "mapstruct",
    "service": "serviceClass",
    "entityTableName": "color_code",
    "pagination": "pager"
}
