{
    "fluentMethods": true,
    "relationships": [
        {
            "relationshipType": "one-to-many",
            "relationshipName": "compositions",
            "otherEntityName": "composition",
            "otherEntityRelationshipName": "musicBook"
        }
    ],
    "fields": [
        {
            "fieldName": "name",
            "fieldType": "String",
            "fieldValidateRules": [
                "required"
            ]
        },
        {
            "fieldName": "description",
            "fieldType": "String"
        }
    ],
    "changelogDate": "20161102104945",
    "entityTableName": "music_book",
    "dto": "mapstruct",
    "pagination": "pager",
    "service": "serviceClass"
}