{
    "fluentMethods": true,
    "relationships": [
        {
            "relationshipType": "many-to-one",
            "relationshipName": "clothing",
            "otherEntityName": "clothing",
            "otherEntityField": "id"
        },
        {
            "relationshipType": "many-to-one",
            "relationshipName": "person",
            "otherEntityName": "person",
            "otherEntityField": "id"
        }
    ],
    "fields": [
        {
            "fieldName": "beginDate",
            "fieldType": "LocalDate",
            "fieldValidateRules": [
                "required"
            ]
        },
        {
            "fieldName": "endDate",
            "fieldType": "LocalDate"
        }
    ],
    "changelogDate": "20161102104928",
    "entityTableName": "person_clothing",
    "dto": "mapstruct",
    "pagination": "pager",
    "service": "serviceClass"
}