{
    "fluentMethods": true,
    "relationships": [
        {
            "relationshipType": "many-to-one",
            "relationshipName": "honor",
            "otherEntityName": "honor",
            "otherEntityField": "id"
        },
        {
            "relationshipType": "many-to-one",
            "relationshipName": "person",
            "otherEntityName": "person",
            "otherEntityField": "id"
        }
    ],
    "fields": [
        {
            "fieldName": "date",
            "fieldType": "LocalDate",
            "fieldValidateRules": [
                "required"
            ]
        }
    ],
    "changelogDate": "20161102104933",
    "entityTableName": "person_honor",
    "dto": "mapstruct",
    "pagination": "pager",
    "service": "serviceClass"
}