{
    "fluentMethods": true,
    "relationships": [
        {
            "relationshipType": "one-to-many",
            "relationshipName": "children",
            "otherEntityName": "personGroup",
            "otherEntityRelationshipName": "parent"
        },
        {
            "relationshipType": "many-to-one",
            "relationshipName": "parent",
            "otherEntityName": "personGroup",
            "otherEntityField": "id"
        },
        {
            "relationshipType": "many-to-many",
            "relationshipName": "persons",
            "otherEntityName": "person",
            "ownerSide": false,
            "otherEntityRelationshipName": "personGroups"
        },
		{
            "relationshipType": "many-to-many",
            "relationshipName": "companies",
            "otherEntityName": "company",
            "ownerSide": false,
            "otherEntityRelationshipName": "personGroups"
        }
    ],
    "fields": [
        {
            "fieldName": "name",
            "fieldType": "String",
            "fieldValidateRules": [
                "required"
            ]
        }
    ],
    "changelogDate": "20161102104915",
    "dto": "mapstruct",
    "service": "serviceClass",
    "entityTableName": "person_group",
    "pagination": "pager"
}
