{
    "fluentMethods": true,
    "relationships": [
        {
            "relationshipType": "many-to-many",
            "otherEntityRelationshipName": "roles",
            "relationshipName": "walterUsers",
            "otherEntityName": "walterUser",
            "otherEntityField": "id",
            "ownerSide": true
        }
    ],
    "fields": [
        {
            "fieldName": "name",
            "fieldType": "String",
            "fieldValidateRules": [
                "required"
            ]
        }
    ],
    "changelogDate": "20161102104917",
    "entityTableName": "role",
    "dto": "mapstruct",
    "pagination": "pager",
    "service": "serviceClass"
}